{
    "gold": [
        {
            "name": "pracuj.pl",
            "logo": "http://c4p.confitura.pl/files/sponsors/3.jpg",
            "url": "http://www.pracuj.pl/"
        },
        {
            "name": "decerto.pl",
            "logo": "http://c4p.confitura.pl/files/sponsors/4.jpg",
            "url": "http://www.decerto.pl/"
        }
    ], "silver": [
    {
        "name": "javeo",
        "logo": "http://c4p.confitura.pl/files/sponsors/3.jpg",
        "url": "http://www.pracuj.pl/"
    },
    {
        "name": "pracuj.pl",
        "logo": "http://c4p.confitura.pl/files/sponsors/4.jpg",
        "url": "http://www.decerto.pl/"
    }
]
}